<?xml version="1.0" encoding="UTF-8"?>
<svg height="16px" viewBox="0 0 16 16" width="16px" xmlns="http://www.w3.org/2000/svg">
    <g fill="#ffffff">
        <path d="m 7.949219 13.003906 c 0 1.109375 -0.898438 2.007813 -2.003907 2.007813 c -1.109374 0 -2.007812 -0.898438 -2.007812 -2.007813 c 0 -1.105468 0.898438 -2.003906 2.007812 -2.003906 c 1.105469 0 2.003907 0.898438 2.003907 2.003906 z m 0 0"/>
        <path d="m 16 9.054688 c 0 1.101562 -0.894531 2 -2 2 s -2 -0.898438 -2 -2 c 0 -1.105469 0.894531 -2 2 -2 s 2 0.894531 2 2 z m 0 0"/>
        <path d="m 10 8.5 c 0 0.828125 -0.671875 1.5 -1.5 1.5 s -1.5 -0.671875 -1.5 -1.5 s 0.671875 -1.5 1.5 -1.5 s 1.5 0.671875 1.5 1.5 z m 0 0"/>
        <path d="m 8 4 c 0 2.210938 -1.789062 4 -4 4 s -4 -1.789062 -4 -4 s 1.789062 -4 4 -4 s 4 1.789062 4 4 z m 0 0"/>
    </g>
</svg>
