<?xml version="1.0" encoding="UTF-8"?>
<svg height="128px" viewBox="0 0 128 128" width="128px" xmlns="http://www.w3.org/2000/svg" xmlns:xlink="http://www.w3.org/1999/xlink">
    <linearGradient id="a" gradientUnits="userSpaceOnUse" x1="34" x2="96" y1="122" y2="124">
        <stop offset="0" stop-color="#4d4d4d"/>
        <stop offset="0.361642" stop-color="#a9a9a9"/>
        <stop offset="1" stop-color="#202020"/>
    </linearGradient>
    <linearGradient id="b" gradientUnits="userSpaceOnUse" x1="30" x2="99.33342" y1="108" y2="108">
        <stop offset="0" stop-color="#3d3846"/>
        <stop offset="0.302763" stop-color="#9a9996"/>
        <stop offset="0.903597" stop-color="#342f3e"/>
        <stop offset="1" stop-color="#77767b"/>
    </linearGradient>
    <clipPath id="c">
        <path d="m 10 7 h 110 v 110 h -110 z m 0 0"/>
    </clipPath>
    <clipPath id="d">
        <path d="m 119.84375 62.308594 c 0 30.140625 -24.433594 54.574218 -54.574219 54.574218 s -54.574219 -24.433593 -54.574219 -54.574218 s 24.433594 -54.578125 54.574219 -54.578125 s 54.574219 24.4375 54.574219 54.578125 z m 0 0"/>
    </clipPath>
    <radialGradient id="e" cx="183.985764" cy="860.911621" gradientTransform="matrix(0.139973 0.0808132 -0.0952194 0.164925 136.222503 -68.854179)" gradientUnits="userSpaceOnUse" r="310.809296">
        <stop offset="0" stop-color="#c0bfbc"/>
        <stop offset="1" stop-color="#7d7c77"/>
    </radialGradient>
    <radialGradient id="f" cx="77.640167" cy="835.200012" gradientTransform="matrix(0.115018 0.113866 -0.123066 0.124311 165.854565 -40.664927)" gradientUnits="userSpaceOnUse" r="292.526398">
        <stop offset="0" stop-color="#ffffff"/>
        <stop offset="1" stop-color="#e6e6e6"/>
    </radialGradient>
    <path d="m 35.3125 111.230469 c -0.769531 0.207031 -1.425781 0.710937 -1.824219 1.398437 c -0.824219 1.433594 -0.332031 3.269532 1.101563 4.097656 c 18.8125 10.863282 42.007812 10.863282 60.820312 0 c 1.433594 -0.828124 1.925782 -2.664062 1.101563 -4.097656 c -0.832031 -1.4375 -2.667969 -1.925781 -4.101563 -1.097656 c -16.964844 9.796875 -37.855468 9.796875 -54.820312 0 c -0.6875 -0.398438 -1.507813 -0.507812 -2.277344 -0.300781 z m 0 0" fill="url(#a)"/>
    <path d="m 93.910156 114.128906 c -17.890625 10.328125 -39.929687 10.328125 -57.820312 0" fill="#241f31" fill-opacity="0.537255"/>
    <path d="m 35.3125 109.175781 c -0.769531 0.207031 -1.425781 0.710938 -1.824219 1.398438 c -0.824219 1.433593 -0.332031 3.269531 1.101563 4.097656 c 18.8125 10.863281 42.007812 10.863281 60.820312 0 c 1.433594 -0.828125 1.925782 -2.664063 1.101563 -4.097656 c -0.828125 -1.4375 -2.664063 -1.929688 -4.101563 -1.097657 c -16.964844 9.792969 -37.855468 9.792969 -54.820312 0 c -0.6875 -0.398437 -1.507813 -0.507812 -2.277344 -0.300781 z m 0 0" fill="url(#b)"/>
    <path d="m 122.820312 61.820312 c 0 31.933594 -25.886718 57.824219 -57.820312 57.824219 s -57.820312 -25.890625 -57.820312 -57.824219 c 0 -31.933593 25.886718 -57.820312 57.820312 -57.820312 s 57.820312 25.886719 57.820312 57.820312 z m 0 0" fill="#1657a5" fill-opacity="0.537255"/>
    <g clip-path="url(#c)">
        <g clip-path="url(#d)">
            <path d="m 22 58 c 1.660156 -0.871094 3.503906 -1.414062 5.375 -1.5 c 1.875 -0.085938 3.769531 0.296875 5.453125 1.121094 c 1.6875 0.824218 3.144531 2.078125 4.304687 3.550781 c 1.164063 1.472656 2.027344 3.152344 2.867188 4.828125 l 2 4 c 0.640625 1.285156 1.308594 2.570312 2.226562 3.675781 c 0.914063 1.105469 2.074219 2.019531 3.390626 2.589844 c 1.316406 0.570313 2.773437 0.792969 4.207031 0.710937 c 1.433593 -0.082031 2.835937 -0.457031 4.175781 -0.976562 c 2.261719 -0.875 4.363281 -2.1875 6.046875 -3.933594 s 2.867187 -3.898437 3.953125 -6.066406 l 2 -4 c 0.640625 -1.28125 1.3125 -2.5625 2.222656 -3.667969 c 0.914063 -1.105469 2.054688 -2.023437 3.328125 -2.675781 c 1.277344 -0.652344 2.671875 -1.042969 4.078125 -1.320312 c 1.40625 -0.277344 2.832032 -0.449219 4.226563 -0.777344 c 1.925781 -0.453125 3.808593 -1.230469 5.324219 -2.503906 c 1.515624 -1.273438 2.632812 -3.085938 2.820312 -5.054688 c 0.140625 -1.476562 -0.246094 -2.972656 -0.921875 -4.292969 c -0.679687 -1.320312 -1.644531 -2.476562 -2.695313 -3.519531 c -2.101562 -2.09375 -4.605468 -3.8125 -6.382812 -6.1875 c -2 -2.667969 -2.957031 -6.097656 -2.632812 -9.414062 c 0.324218 -3.316407 1.929687 -6.496094 4.40625 -8.722657 c 2.480468 -2.230469 5.808593 -3.496093 9.140624 -3.46875 c 3.335938 0.023438 6.640626 1.335938 9.085938 3.605469 l 35.929688 -10.351562 v 118.378906 h -134.164063 l 7.929687 -40.316406 c 0.890626 -4.523438 1.765626 -9.09375 3.5625 -13.339844 c 1.796876 -4.25 4.65625 -8.230469 8.742188 -10.371094 z m 0 0" fill="url(#e)"/>
            <path d="m 30 64 c 2.78125 4.804688 3.796875 10.449219 4 16 c 0.09375 2.566406 0.023438 5.140625 0.25 7.699219 c 0.226562 2.558593 0.765625 5.128906 1.996094 7.386719 c 1.230468 2.253906 3.214844 4.171874 5.664062 4.9375 c 1.226563 0.382812 2.550782 0.46875 3.804688 0.191406 c 1.253906 -0.273438 2.433594 -0.917969 3.304687 -1.863282 c 0.84375 -0.914062 1.378907 -2.078124 1.6875 -3.285156 c 0.304688 -1.207031 0.390625 -2.457031 0.421875 -3.703125 c 0.058594 -2.484375 -0.082031 -5.066406 0.871094 -7.363281 c 0.53125 -1.277344 1.398438 -2.417969 2.503906 -3.246094 c 1.109375 -0.828125 2.453125 -1.332031 3.832032 -1.453125 c 1.378906 -0.121093 2.777343 0.140625 4.058593 0.65625 c 1.285157 0.515625 2.453125 1.277344 3.605469 2.042969 l 6 4 c 1.480469 0.988281 3.027344 1.941406 4.757812 2.367188 c 1.730469 0.421874 3.597657 0.3125 5.242188 -0.367188 c 2.210938 -0.914062 3.949219 -2.796875 4.9375 -4.976562 c 0.988281 -2.179688 1.261719 -4.636719 1.0625 -7.023438 c -0.199219 -2.378906 -0.859375 -4.699219 -1.132812 -7.070312 c -0.140626 -1.183594 -0.183594 -2.386719 -0.023438 -3.570313 c 0.15625 -1.183594 0.523438 -2.347656 1.15625 -3.359375 c 0.699219 -1.117188 1.703125 -2.015625 2.792969 -2.761719 c 1.085937 -0.746093 2.257812 -1.355469 3.417969 -1.984375 c 1.15625 -0.628906 2.304687 -1.289062 3.339843 -2.105468 c 1.035157 -0.816407 1.957031 -1.792969 2.613281 -2.933594 c 0.660157 -1.144532 1.042969 -2.449219 1.054688 -3.769532 c 0.011719 -1.316406 -0.347656 -2.632812 -1.015625 -3.769531 c -0.664063 -1.136719 -1.625 -2.089843 -2.707031 -2.835937 c -1.085938 -0.75 -2.292969 -1.300782 -3.496094 -1.839844 l -5.730469 -2.566406 c -2.191406 -0.980469 -4.386719 -1.988282 -6.335937 -3.382813 c -1.949219 -1.394531 -3.644532 -3.1875 -4.742188 -5.320312 c -1.101562 -2.128907 -1.582031 -4.585938 -1.292968 -6.96875 c 0.289062 -2.378907 1.347656 -4.660157 2.988281 -6.410157 l 17.582031 -11.703124 h 27.722656 c 1.617188 0 3.25 0.023437 4.816406 0.414062 c 1.570313 0.394531 3.054688 1.167969 4.199219 2.308594 c 1.140625 1.144531 1.914063 2.628906 2.308594 4.199218 c 0.394531 1.566407 0.414063 3.199219 0.414063 4.816407 v 110.6875 c 0 1.613281 -0.019532 3.25 -0.414063 4.816406 c -0.394531 1.570313 -1.167969 3.054687 -2.308594 4.199219 c -1.144531 1.140625 -2.628906 1.914062 -4.199219 2.308594 c -1.566406 0.390624 -3.199218 0.414062 -4.816406 0.414062 h -102.792968 c -1.617188 0 -3.25 -0.023438 -4.820313 -0.414062 c -1.566406 -0.394532 -3.050781 -1.167969 -4.195313 -2.308594 c -1.144531 -1.144532 -1.917968 -2.628906 -2.308593 -4.199219 c -0.394531 -1.566406 -0.417969 -3.203125 -0.417969 -4.816406 v -55.441407 c 0 -2.710937 0.09375 -5.503906 1.179688 -7.988281 c 0.542968 -1.238281 1.320312 -2.386719 2.304687 -3.316406 s 2.175781 -1.644531 3.46875 -2.0625 c 2.578125 -0.835937 5.484375 -0.417969 7.847656 0.914063 c 2.363281 1.328124 4.183594 3.472656 5.542969 5.820312 z m 0 0" fill="url(#f)"/>
        </g>
    </g>
    <g fill="#c0bfbc">
        <path d="m 44.3125 52.835938 c -1.058594 0 -2.113281 0.4375 -2.863281 1.1875 c -0.75 0.746093 -1.183594 1.800781 -1.183594 2.859374 c 0 1.058594 0.433594 2.113282 1.183594 2.863282 s 1.804687 1.183594 2.863281 1.183594 s 2.109375 -0.433594 2.859375 -1.183594 s 1.1875 -1.804688 1.1875 -2.863282 c 0 -1.058593 -0.4375 -2.113281 -1.1875 -2.859374 c -0.75 -0.75 -1.800781 -1.1875 -2.859375 -1.1875 z m 0 0"/>
        <path d="m 58.015625 41.507812 c -1.058594 0 -2.113281 0.4375 -2.863281 1.1875 c -0.746094 0.746094 -1.183594 1.800782 -1.183594 2.859376 c 0 1.058593 0.4375 2.113281 1.183594 2.863281 c 0.75 0.746093 1.804687 1.183593 2.863281 1.183593 s 2.113281 -0.4375 2.859375 -1.183593 c 0.75 -0.75 1.1875 -1.804688 1.1875 -2.863281 c 0 -1.058594 -0.4375 -2.113282 -1.1875 -2.859376 c -0.746094 -0.75 -1.800781 -1.1875 -2.859375 -1.1875 z m 0 0"/>
        <path d="m 72 33.148438 c -1.058594 0 -2.113281 0.4375 -2.863281 1.1875 c -0.746094 0.746093 -1.183594 1.800781 -1.183594 2.859374 c 0 1.058594 0.4375 2.113282 1.183594 2.863282 c 0.75 0.746094 1.804687 1.183594 2.863281 1.183594 s 2.113281 -0.4375 2.863281 -1.183594 c 0.746094 -0.75 1.183594 -1.804688 1.183594 -2.863282 c 0 -1.058593 -0.4375 -2.113281 -1.183594 -2.859374 c -0.75 -0.75 -1.804687 -1.1875 -2.863281 -1.1875 z m 0 0"/>
        <path d="m 64.429688 26.664062 c -1.058594 0 -2.113282 0.433594 -2.859376 1.183594 c -0.75 0.75 -1.1875 1.800782 -1.1875 2.863282 c 0 1.058593 0.4375 2.109374 1.1875 2.859374 c 0.746094 0.75 1.800782 1.183594 2.859376 1.183594 c 1.058593 0 2.113281 -0.433594 2.863281 -1.183594 c 0.746093 -0.75 1.183593 -1.800781 1.183593 -2.859374 c 0 -1.0625 -0.4375 -2.113282 -1.183593 -2.863282 c -0.75 -0.75 -1.804688 -1.183594 -2.863281 -1.183594 z m 0 0"/>
        <path d="m 50.539062 18.816406 c -2.019531 0 -4.03125 0.832032 -5.460937 2.261719 s -2.261719 3.441406 -2.261719 5.460937 c 0 2.023438 0.832032 4.03125 2.261719 5.460938 s 3.441406 2.261719 5.460937 2.261719 c 2.023438 0 4.03125 -0.832031 5.460938 -2.261719 s 2.261719 -3.4375 2.261719 -5.460938 c 0 -2.019531 -0.832031 -4.03125 -2.261719 -5.460937 s -3.4375 -2.261719 -5.460938 -2.261719 z m 0 0"/>
    </g>
    <path d="m 48 56 c 0 2.035156 -1.652344 3.6875 -3.6875 3.6875 c -2.039062 0 -3.6875 -1.652344 -3.6875 -3.6875 s 1.648438 -3.6875 3.6875 -3.6875 c 2.035156 0 3.6875 1.652344 3.6875 3.6875 z m 0 0" fill="#ffffff"/>
    <path d="m 61.703125 44.671875 c 0 2.035156 -1.652344 3.6875 -3.6875 3.6875 s -3.6875 -1.652344 -3.6875 -3.6875 c 0 -2.039063 1.652344 -3.6875 3.6875 -3.6875 s 3.6875 1.648437 3.6875 3.6875 z m 0 0" fill="#ffffff"/>
    <path d="m 75.6875 36.3125 c 0 2.035156 -1.652344 3.6875 -3.6875 3.6875 s -3.6875 -1.652344 -3.6875 -3.6875 c 0 -2.039062 1.652344 -3.6875 3.6875 -3.6875 s 3.6875 1.648438 3.6875 3.6875 z m 0 0" fill="#ffffff"/>
    <path d="m 68.117188 29.824219 c 0 2.039062 -1.648438 3.691406 -3.6875 3.691406 c -2.035157 0 -3.6875 -1.652344 -3.6875 -3.691406 c 0 -2.035157 1.652343 -3.6875 3.6875 -3.6875 c 2.039062 0 3.6875 1.652343 3.6875 3.6875 z m 0 0" fill="#ffffff"/>
    <path d="m 57.902344 25.65625 c 0 4.066406 -3.296875 7.363281 -7.363282 7.363281 c -4.066406 0 -7.363281 -3.296875 -7.363281 -7.363281 s 3.296875 -7.363281 7.363281 -7.363281 c 4.066407 0 7.363282 3.296875 7.363282 7.363281 z m 0 0" fill="#ffffff"/>
</svg>
